<svg width="300" height="300" viewBox="0 0 300 300" fill="none" xmlns="http://www.w3.org/2000/svg">
<path fill-rule="evenodd" clip-rule="evenodd" d="M297.756 66.7148C297.866 67.1079 297.923 67.5133 297.924 67.9205V131.221C297.924 132.033 297.701 132.831 297.277 133.534C296.854 134.237 296.245 134.82 295.512 135.224L240.258 165.813V226.442C240.258 228.092 239.346 229.615 237.858 230.446L122.52 294.288C122.256 294.432 121.968 294.524 121.68 294.622C121.572 294.657 121.47 294.721 121.356 294.749C120.55 294.954 119.702 294.954 118.896 294.749C118.764 294.715 118.644 294.646 118.518 294.599C118.254 294.507 117.978 294.426 117.726 294.288L2.412 230.446C1.67944 230.041 1.07076 229.458 0.647307 228.755C0.22385 228.052 0.000580436 227.254 0 226.442L0 36.5417C0 36.1263 0.06 35.7225 0.168 35.3302C0.204 35.1975 0.288 35.0763 0.336 34.9436C0.426 34.7013 0.51 34.4532 0.642 34.2282C0.732 34.0782 0.864 33.9571 0.972 33.8186C1.11 33.634 1.236 33.4436 1.398 33.2821C1.536 33.1494 1.716 33.0513 1.872 32.9359C2.046 32.7975 2.202 32.6475 2.4 32.5378H2.406L60.066 0.616687C60.7961 0.212728 61.6237 0.00012207 62.466 0.00012207C63.3083 0.00012207 64.1359 0.212728 64.866 0.616687L122.526 32.5378H122.538C122.73 32.6532 122.892 32.7975 123.066 32.9302C123.222 33.0455 123.396 33.1494 123.534 33.2763C123.702 33.4436 123.822 33.634 123.966 33.8186C124.068 33.9571 124.206 34.0782 124.29 34.2282C124.428 34.459 124.506 34.7013 124.602 34.9436C124.65 35.0763 124.734 35.1975 124.77 35.3359C124.88 35.7291 124.937 36.1344 124.938 36.5417V155.151L172.986 128.549V67.9148C172.986 67.5109 173.046 67.1013 173.154 66.7148C173.196 66.5763 173.274 66.4552 173.322 66.3225C173.418 66.0802 173.502 65.8321 173.634 65.6071C173.724 65.4571 173.856 65.3359 173.958 65.1975C174.102 65.0128 174.222 64.8225 174.39 64.6609C174.528 64.5282 174.702 64.4302 174.858 64.3148C175.038 64.1763 175.194 64.0263 175.386 63.9167H175.392L233.058 31.9955C233.788 31.591 234.616 31.3781 235.458 31.3781C236.3 31.3781 237.128 31.591 237.858 31.9955L295.518 63.9167C295.722 64.0321 295.878 64.1763 296.058 64.309C296.208 64.4244 296.382 64.5282 296.52 64.6552C296.688 64.8225 296.808 65.0128 296.952 65.1975C297.06 65.3359 297.192 65.4571 297.276 65.6071C297.414 65.8321 297.492 66.0802 297.588 66.3225C297.642 66.4552 297.72 66.5763 297.756 66.7148V66.7148ZM288.312 128.549V75.9109L268.134 87.0802L240.258 102.513V155.151L288.318 128.549H288.312ZM230.652 223.771V171.097L203.232 186.155L124.932 229.124V282.294L230.652 223.771ZM9.612 44.5321V223.771L115.32 282.288V229.13L60.096 199.078L60.078 199.067L60.054 199.055C59.868 198.951 59.712 198.801 59.538 198.674C59.388 198.559 59.214 198.467 59.082 198.34L59.07 198.322C58.914 198.178 58.806 197.999 58.674 197.838C58.554 197.682 58.41 197.549 58.314 197.388L58.308 197.371C58.2 197.197 58.134 196.99 58.056 196.794C57.978 196.621 57.876 196.459 57.828 196.274V196.269C57.768 196.049 57.756 195.819 57.732 195.594C57.708 195.421 57.66 195.247 57.66 195.074V195.063V71.134L29.79 55.6955L9.612 44.5378V44.5321ZM62.472 9.9513L14.43 36.5417L62.46 63.1321L110.496 36.5359L62.46 9.9513H62.472ZM87.456 175.897L115.326 160.471V44.5321L95.148 55.7013L67.272 71.134V187.072L87.456 175.897ZM235.458 41.3302L187.422 67.9205L235.458 94.5109L283.488 67.9148L235.458 41.3302V41.3302ZM230.652 102.513L202.776 87.0802L182.598 75.9109V128.549L210.468 143.976L230.652 155.151V102.513ZM120.12 221.134L190.578 182.457L225.798 163.13L177.798 136.557L122.532 167.151L72.162 195.034L120.12 221.134V221.134Z" fill="#FF2D20"/>
</svg>
